%YAML 1.1
%TAG !u! tag:unity3d.com,2011:
--- !u!114 &11400000
MonoBehaviour:
  m_ObjectHideFlags: 0
  m_CorrespondingSourceObject: {fileID: 0}
  m_PrefabInstance: {fileID: 0}
  m_PrefabAsset: {fileID: 0}
  m_GameObject: {fileID: 0}
  m_Enabled: 1
  m_EditorHideFlags: 0
  m_Script: {fileID: 11500000, guid: 1e990db4874e0d341ac689c0d6924430, type: 3}
  m_Name: A1 SPA
  m_EditorClassIdentifier: 
  storyText: "Saludos, Dios. \xBFC\xF3mo te sientes?\r\n\r\nElige tu respuesta:\r\n1.
    No soy Dios.\r\n2. \xBFQui\xE9n eres t\xFA?"
  nextStates:
  - {fileID: 11400000, guid: 10acd1ca608db5844aca6c40b9b845a9, type: 2}
  - {fileID: 11400000, guid: c10a5fccc23c4ac40be6f99d22ee85a8, type: 2}
