%YAML 1.1
%TAG !u! tag:unity3d.com,2011:
--- !u!114 &11400000
MonoBehaviour:
  m_ObjectHideFlags: 0
  m_CorrespondingSourceObject: {fileID: 0}
  m_PrefabInstance: {fileID: 0}
  m_PrefabAsset: {fileID: 0}
  m_GameObject: {fileID: 0}
  m_Enabled: 1
  m_EditorHideFlags: 0
  m_Script: {fileID: 11500000, guid: 1e990db4874e0d341ac689c0d6924430, type: 3}
  m_Name: A10 SPA
  m_EditorClassIdentifier: 
  storyText: "La madre llega a casa y le da los v\xEDveres a su hijo. \xC9l le pregunta
    de d\xF3nde los consigui\xF3... \xBFQu\xE9 quieres que diga?\r\n\r\nElige tu respuesta:\r\n1.
    Dice la verdad.\r\n2. Miente."
  nextStates:
  - {fileID: 11400000, guid: 574c562b8a099ed49a67f4f9a4929f2a, type: 2}
  - {fileID: 11400000, guid: 50e699f9aa9f0a343983984183fbcecf, type: 2}
