%YAML 1.1
%TAG !u! tag:unity3d.com,2011:
--- !u!114 &11400000
MonoBehaviour:
  m_ObjectHideFlags: 0
  m_CorrespondingSourceObject: {fileID: 0}
  m_PrefabInstance: {fileID: 0}
  m_PrefabAsset: {fileID: 0}
  m_GameObject: {fileID: 0}
  m_Enabled: 1
  m_EditorHideFlags: 0
  m_Script: {fileID: 11500000, guid: 1e990db4874e0d341ac689c0d6924430, type: 3}
  m_Name: A8 SPA
  m_EditorClassIdentifier: 
  storyText: "Ok, primer caso: Una madre soltera no tiene nada con qu\xE9 alimentar
    a su hijo. Ella roba algunos v\xEDveres del supermercado, el cual hace millones
    en ganancias de todas maneras... \xBFQu\xE9 quieres que pase?\r\n\r\nElige tu
    respuesta:\r\n1. El guardia la ve y la pone bajo custodia.\r\n2. Ella sale desapercibida
    del supermercado."
  nextStates:
  - {fileID: 11400000, guid: ae912bc171f57c24a9bf79610087d0ae, type: 2}
  - {fileID: 11400000, guid: 127c4ceefc01dc0418139f368888de78, type: 2}
